Root Loss Probability, rootTypeParameters\Bean-Carioca-SimRoot4\primaryRoot\baseRootLossProbability, 0.01, 0.025, 0.05
Root Loss Probability, rootTypeParameters\Bean-Carioca-SimRoot4\basalWhorl1\baseRootLossProbability, 0.01, 0.025, 0.05
Root Loss Probability, rootTypeParameters\Bean-Carioca-SimRoot4\basalWhorl2\baseRootLossProbability, 0.01, 0.025, 0.05
Root Loss Probability, rootTypeParameters\Bean-Carioca-SimRoot4\basalWhorl3\baseRootLossProbability, 0.01, 0.025, 0.05
Root Loss Probability, rootTypeParameters\Bean-Carioca-SimRoot4\basalWhorl4\baseRootLossProbability, 0.01, 0.025, 0.05
Root Loss Probability, rootTypeParameters\Bean-Carioca-SimRoot4\hypocotylBornRoots\baseRootLossProbability, 0.01, 0.025, 0.05
Root Loss Probability, rootTypeParameters\Bean-Carioca-SimRoot4\lateralPrimaryRoot\baseRootLossProbability, 0.01, 0.025, 0.05
Root Loss Probability, rootTypeParameters\Bean-Carioca-SimRoot4\lateralPrimaryRootFastGrowing\baseRootLossProbability, 0.01, 0.025, 0.05
Root Loss Probability, rootTypeParameters\Bean-Carioca-SimRoot4\lateralBasalRoots\baseRootLossProbability, 0.01, 0.025, 0.05
Root Loss Probability, rootTypeParameters\Bean-Carioca-SimRoot4\lateralHypocotylBornRoots\baseRootLossProbability, 0.01, 0.025, 0.05
Root Loss Probability, rootTypeParameters\Bean-Carioca-SimRoot4\fineLateral\baseRootLossProbability, 0.01, 0.025, 0.05
Root Loss Probability, rootTypeParameters\Bean-Carioca-SimRoot4\fineLateralFastGrowing\baseRootLossProbability, 0.01, 0.025, 0.05
Nitrate Concentration Multiplier, environment\soil\nitrate\concentration\multiplier, 0.25, 0.8
Nitrate Concentration Multiplier, environment\soil\organic\carbonContent\multiplier, 0.25, 0.8
Phosphorus Concentration Multiplier, environment\soil\phosphorus\concentration\multiplier, 6, 35
Lateral Root Branching Density, rootTypeParameters\Bean-Carioca-SimRoot4\primaryRoot\branchList\lateralPrimaryRoot\branchingFrequency, 0.4, 0.2, 0.1
Lateral Root Branching Density, rootTypeParameters\Bean-Carioca-SimRoot4\primaryRoot\branchList\lateralPrimaryRootFastGrowing\branchingFrequency, minimum;2+maximum;10, minimum;1+maximum;5, minimum;0.5+maximum;2.5
Lateral Root Branching Density, rootTypeParameters\Bean-Carioca-SimRoot4\basalWhorl1\branchList\lateralBasalRoots\branchingFrequency, 0.5, 0.25, 0.15
Lateral Root Branching Density, rootTypeParameters\Bean-Carioca-SimRoot4\basalWhorl2\branchList\lateralBasalRoots\branchingFrequency, 0.5, 0.25, 0.15
Lateral Root Branching Density, rootTypeParameters\Bean-Carioca-SimRoot4\basalWhorl3\branchList\lateralBasalRoots\branchingFrequency, 0.5, 0.25, 0.15
Lateral Root Branching Density, rootTypeParameters\Bean-Carioca-SimRoot4\basalWhorl4\branchList\lateralBasalRoots\branchingFrequency, 0.5, 0.25, 0.15
Lateral Root Branching Density, rootTypeParameters\Bean-Carioca-SimRoot4\hypocotylBornRoots\branchList\lateralHypocotylBornRoots\branchingFrequency, 1, 0.6, 0.4
Lateral Root Branching Density, rootTypeParameters\Bean-Carioca-SimRoot4\lateralPrimaryRoot\branchList\fineLateral\branchingFrequency, 1, 0.5, 0.3
Lateral Root Branching Density, rootTypeParameters\Bean-Carioca-SimRoot4\lateralPrimaryRootFastGrowing\branchList\fineLateralFastGrowing\branchingFrequency, 1.1, 0.55, 0.3
Lateral Root Branching Density, rootTypeParameters\Bean-Carioca-SimRoot4\lateralBasalRoots\branchList\fineLateral\branchingFrequency, 1, 0.5, 0.3
Basal Root Number, rootTypeParameters\Bean-Carioca-SimRoot4\hypocotyl\branchList\hypocotylBornRoots\maxNumberOfBranches, 10, 25, 40
Basal Root Number, rootTypeParameters\Bean-Carioca-SimRoot4\hypocotyl\branchList\basalWhorl2\maxNumberOfBranches, 0, 4, 4
Basal Root Number, rootTypeParameters\Bean-Carioca-SimRoot4\hypocotyl\branchList\basalWhorl2\numberOfBranches/whorl, 0, 4, 4
Basal Root Number, rootTypeParameters\Bean-Carioca-SimRoot4\hypocotyl\branchList\basalWhorl3\maxNumberOfBranches, 0, 4, 4
Basal Root Number, rootTypeParameters\Bean-Carioca-SimRoot4\hypocotyl\branchList\basalWhorl3\numberOfBranches/whorl, 0, 4, 4
Basal Root Number, rootTypeParameters\Bean-Carioca-SimRoot4\hypocotyl\branchList\basalWhorl4\maxNumberOfBranches, 0, 0, 4
Basal Root Number, rootTypeParameters\Bean-Carioca-SimRoot4\hypocotyl\branchList\basalWhorl4\numberOfBranches/whorl, 0, 0, 4
Random Number Generator Seed, simulationControls\randomNumberGeneratorSeed, 0, 1, 2, 3, 4